{
    "modules": [
        {
            "config": {
                "position": [
                    43,
                    118
                ]
            },
            "name": "New Model Object",
            "value": {
                "actionGroup": {
                    "_default0_list": false,
                    "_default1_show": false,
                    "_default2_new_create": true,
                    "_default3_edit_update": false,
                    "_default4_delete": false,
                    "customActions": [
                        "showForm",
                        "sendMail"
                    ]
                },
                "name": "VisitRequestData",
                "objectsettings": {
                    "addDeletedField": true,
                    "addHiddenField": true,
                    "addStarttimeEndtimeFields": true,
                    "aggregateRoot": true,
                    "categorizable": false,
                    "description": "",
                    "mapToTable": "",
                    "parentClass": "",
                    "skipTypeConfiguration": false,
                    "sorting": false,
                    "type": "Entity",
                    "uid": "1120984261042"
                },
                "propertyGroup": {
                    "properties": [
                        {
                            "allowedFileTypes": "",
                            "maxItems": "1",
                            "propertyDescription": "",
                            "propertyIsExcludeField": true,
                            "propertyIsL10nModeExclude": false,
                            "propertyIsRequired": false,
                            "propertyName": "additionalInformationForSecurityStaff",
                            "propertyType": "String",
                            "uid": "929448464217"
                        },
                        {
                            "allowedFileTypes": "",
                            "maxItems": "1",
                            "propertyDescription": "",
                            "propertyIsExcludeField": true,
                            "propertyIsL10nModeExclude": false,
                            "propertyIsRequired": false,
                            "propertyName": "anonymousVisitors",
                            "propertyType": "Integer",
                            "uid": "320700401727"
                        },
                        {
                            "allowedFileTypes": "",
                            "maxItems": "1",
                            "propertyDescription": "",
                            "propertyIsExcludeField": true,
                            "propertyIsL10nModeExclude": false,
                            "propertyIsRequired": false,
                            "propertyName": "building",
                            "propertyType": "String",
                            "uid": "1248877503530"
                        },
                        {
                            "allowedFileTypes": "",
                            "maxItems": "1",
                            "propertyDescription": "",
                            "propertyIsExcludeField": true,
                            "propertyIsL10nModeExclude": false,
                            "propertyIsRequired": false,
                            "propertyName": "locationName",
                            "propertyType": "String",
                            "uid": "1207158103146"
                        },
                        {
                            "allowedFileTypes": "",
                            "maxItems": "1",
                            "propertyDescription": "",
                            "propertyIsExcludeField": true,
                            "propertyIsL10nModeExclude": false,
                            "propertyIsRequired": false,
                            "propertyName": "scheduleTime",
                            "propertyType": "String",
                            "uid": "1498457066791"
                        }
                    ]
                },
                "relationGroup": {
                    "relations": [
                        {
                            "foreignRelationClass": "",
                            "lazyLoading": false,
                            "propertyIsExcludeField": true,
                            "relationDescription": "",
                            "relationName": "announcer",
                            "relationType": "zeroToMany",
                            "relationWire": "[wired]",
                            "renderType": "inline",
                            "uid": "1139244690651"
                        },
                        {
                            "foreignRelationClass": "",
                            "lazyLoading": false,
                            "propertyIsExcludeField": true,
                            "relationDescription": "",
                            "relationName": "employee",
                            "relationType": "zeroToMany",
                            "relationWire": "[wired]",
                            "renderType": "inline",
                            "uid": "1419377383036"
                        },
                        {
                            "foreignRelationClass": "",
                            "lazyLoading": false,
                            "propertyIsExcludeField": true,
                            "relationDescription": "",
                            "relationName": "employeeDeputy",
                            "relationType": "zeroToMany",
                            "relationWire": "[wired]",
                            "renderType": "inline",
                            "uid": "1398736068231"
                        },
                        {
                            "foreignRelationClass": "",
                            "lazyLoading": false,
                            "propertyIsExcludeField": true,
                            "relationDescription": "",
                            "relationName": "visitors",
                            "relationType": "zeroToMany",
                            "relationWire": "[wired]",
                            "renderType": "inline",
                            "uid": "173635714634"
                        }
                    ]
                }
            }
        },
        {
            "config": {
                "position": [
                    805,
                    87
                ]
            },
            "name": "New Model Object",
            "value": {
                "actionGroup": {
                    "_default0_list": false,
                    "_default1_show": false,
                    "_default2_new_create": false,
                    "_default3_edit_update": false,
                    "_default4_delete": false,
                    "customActions": []
                },
                "name": "EmployeeData",
                "objectsettings": {
                    "addDeletedField": true,
                    "addHiddenField": true,
                    "addStarttimeEndtimeFields": true,
                    "aggregateRoot": true,
                    "categorizable": false,
                    "description": "",
                    "mapToTable": "",
                    "parentClass": "",
                    "skipTypeConfiguration": false,
                    "sorting": false,
                    "type": "Entity",
                    "uid": "1280474297883"
                },
                "propertyGroup": {
                    "properties": [
                        {
                            "allowedFileTypes": "",
                            "maxItems": "1",
                            "propertyDescription": "",
                            "propertyIsExcludeField": true,
                            "propertyIsL10nModeExclude": false,
                            "propertyIsRequired": false,
                            "propertyName": "building",
                            "propertyType": "String",
                            "uid": "1323762992980"
                        },
                        {
                            "allowedFileTypes": "",
                            "maxItems": "1",
                            "propertyDescription": "",
                            "propertyIsExcludeField": true,
                            "propertyIsL10nModeExclude": false,
                            "propertyIsRequired": false,
                            "propertyName": "cellPhone",
                            "propertyType": "String",
                            "uid": "532895022533"
                        },
                        {
                            "allowedFileTypes": "",
                            "maxItems": "1",
                            "propertyDescription": "",
                            "propertyIsExcludeField": true,
                            "propertyIsL10nModeExclude": false,
                            "propertyIsRequired": false,
                            "propertyName": "department",
                            "propertyType": "String",
                            "uid": "1203091827224"
                        },
                        {
                            "allowedFileTypes": "",
                            "maxItems": "1",
                            "propertyDescription": "",
                            "propertyIsExcludeField": true,
                            "propertyIsL10nModeExclude": false,
                            "propertyIsRequired": false,
                            "propertyName": "division",
                            "propertyType": "String",
                            "uid": "406371562397"
                        },
                        {
                            "allowedFileTypes": "",
                            "maxItems": "1",
                            "propertyDescription": "",
                            "propertyIsExcludeField": true,
                            "propertyIsL10nModeExclude": false,
                            "propertyIsRequired": false,
                            "propertyName": "officePhone",
                            "propertyType": "String",
                            "uid": "539894518169"
                        },
                        {
                            "allowedFileTypes": "",
                            "maxItems": "1",
                            "propertyDescription": "",
                            "propertyIsExcludeField": true,
                            "propertyIsL10nModeExclude": false,
                            "propertyIsRequired": false,
                            "propertyName": "organisationalUnitName",
                            "propertyType": "String",
                            "uid": "952969722303"
                        },
                        {
                            "allowedFileTypes": "",
                            "maxItems": "1",
                            "propertyDescription": "",
                            "propertyIsExcludeField": true,
                            "propertyIsL10nModeExclude": false,
                            "propertyIsRequired": false,
                            "propertyName": "room",
                            "propertyType": "String",
                            "uid": "566967416249"
                        }
                    ]
                },
                "relationGroup": {
                    "relations": [
                        {
                            "foreignRelationClass": "",
                            "lazyLoading": false,
                            "propertyIsExcludeField": true,
                            "relationDescription": "",
                            "relationName": "personData",
                            "relationType": "zeroToOne",
                            "relationWire": "[wired]",
                            "renderType": "selectSingle",
                            "uid": "58932082943"
                        }
                    ]
                }
            }
        },
        {
            "config": {
                "position": [
                    1101,
                    403
                ]
            },
            "name": "New Model Object",
            "value": {
                "actionGroup": {
                    "_default0_list": false,
                    "_default1_show": false,
                    "_default2_new_create": false,
                    "_default3_edit_update": false,
                    "_default4_delete": false,
                    "customActions": []
                },
                "name": "GuestData",
                "objectsettings": {
                    "addDeletedField": true,
                    "addHiddenField": true,
                    "addStarttimeEndtimeFields": true,
                    "aggregateRoot": true,
                    "categorizable": false,
                    "description": "",
                    "mapToTable": "",
                    "parentClass": "",
                    "skipTypeConfiguration": false,
                    "sorting": false,
                    "type": "Entity",
                    "uid": "592562897533"
                },
                "propertyGroup": {
                    "properties": [
                        {
                            "allowedFileTypes": "",
                            "maxItems": "1",
                            "propertyDescription": "",
                            "propertyIsExcludeField": true,
                            "propertyIsL10nModeExclude": false,
                            "propertyIsRequired": false,
                            "propertyName": "dateOfBirth",
                            "propertyType": "DateTime",
                            "uid": "1127630845649"
                        },
                        {
                            "allowedFileTypes": "",
                            "maxItems": "1",
                            "propertyDescription": "",
                            "propertyIsExcludeField": true,
                            "propertyIsL10nModeExclude": false,
                            "propertyIsRequired": false,
                            "propertyName": "languageCode",
                            "propertyType": "String",
                            "uid": "876759881589"
                        },
                        {
                            "allowedFileTypes": "",
                            "maxItems": "1",
                            "propertyDescription": "",
                            "propertyIsExcludeField": true,
                            "propertyIsL10nModeExclude": false,
                            "propertyIsRequired": false,
                            "propertyName": "phone",
                            "propertyType": "String",
                            "uid": "922798226432"
                        },
                        {
                            "allowedFileTypes": "",
                            "maxItems": "1",
                            "propertyDescription": "",
                            "propertyIsExcludeField": true,
                            "propertyIsL10nModeExclude": false,
                            "propertyIsRequired": false,
                            "propertyName": "picture",
                            "propertyType": "Image",
                            "uid": "645345503183"
                        }
                    ]
                },
                "relationGroup": {
                    "relations": [
                        {
                            "foreignRelationClass": "",
                            "lazyLoading": false,
                            "propertyIsExcludeField": true,
                            "relationDescription": "",
                            "relationName": "automobile",
                            "relationType": "zeroToOne",
                            "relationWire": "[wired]",
                            "renderType": "selectSingle",
                            "uid": "291752437349"
                        },
                        {
                            "foreignRelationClass": "",
                            "lazyLoading": false,
                            "propertyIsExcludeField": true,
                            "relationDescription": "",
                            "relationName": "company",
                            "relationType": "zeroToOne",
                            "relationWire": "[wired]",
                            "renderType": "selectSingle",
                            "uid": "1369400244776"
                        }
                    ]
                }
            }
        },
        {
            "config": {
                "position": [
                    1715,
                    35
                ]
            },
            "name": "New Model Object",
            "value": {
                "actionGroup": {
                    "_default0_list": false,
                    "_default1_show": false,
                    "_default2_new_create": false,
                    "_default3_edit_update": false,
                    "_default4_delete": false,
                    "customActions": []
                },
                "name": "PersonData",
                "objectsettings": {
                    "addDeletedField": true,
                    "addHiddenField": true,
                    "addStarttimeEndtimeFields": true,
                    "aggregateRoot": false,
                    "categorizable": false,
                    "description": "",
                    "mapToTable": "",
                    "parentClass": "",
                    "skipTypeConfiguration": false,
                    "sorting": false,
                    "type": "Entity",
                    "uid": "1343005938227"
                },
                "propertyGroup": {
                    "properties": [
                        {
                            "allowedFileTypes": "",
                            "maxItems": "1",
                            "propertyDescription": "",
                            "propertyIsExcludeField": true,
                            "propertyIsL10nModeExclude": false,
                            "propertyIsRequired": false,
                            "propertyName": "eMailAddress",
                            "propertyType": "String",
                            "uid": "497663395883"
                        },
                        {
                            "allowedFileTypes": "",
                            "maxItems": "1",
                            "propertyDescription": "",
                            "propertyIsExcludeField": true,
                            "propertyIsL10nModeExclude": false,
                            "propertyIsRequired": false,
                            "propertyName": "firstName",
                            "propertyType": "String",
                            "uid": "425246364019"
                        },
                        {
                            "allowedFileTypes": "",
                            "maxItems": "1",
                            "propertyDescription": "",
                            "propertyIsExcludeField": true,
                            "propertyIsL10nModeExclude": false,
                            "propertyIsRequired": false,
                            "propertyName": "genderType",
                            "propertyType": "Select",
                            "uid": "1558538460356"
                        },
                        {
                            "allowedFileTypes": "",
                            "maxItems": "1",
                            "propertyDescription": "",
                            "propertyIsExcludeField": true,
                            "propertyIsL10nModeExclude": false,
                            "propertyIsRequired": false,
                            "propertyName": "lastName",
                            "propertyType": "String",
                            "uid": "13384406386"
                        },
                        {
                            "allowedFileTypes": "",
                            "maxItems": "1",
                            "propertyDescription": "",
                            "propertyIsExcludeField": true,
                            "propertyIsL10nModeExclude": false,
                            "propertyIsRequired": false,
                            "propertyName": "title",
                            "propertyType": "String",
                            "uid": "1264365489831"
                        }
                    ]
                },
                "relationGroup": {
                    "relations": []
                }
            }
        },
        {
            "config": {
                "position": [
                    283,
                    567
                ]
            },
            "name": "New Model Object",
            "value": {
                "actionGroup": {
                    "_default0_list": false,
                    "_default1_show": false,
                    "_default2_new_create": false,
                    "_default3_edit_update": false,
                    "_default4_delete": false,
                    "customActions": []
                },
                "name": "EnterpriseData",
                "objectsettings": {
                    "addDeletedField": true,
                    "addHiddenField": true,
                    "addStarttimeEndtimeFields": true,
                    "aggregateRoot": false,
                    "categorizable": false,
                    "description": "",
                    "mapToTable": "",
                    "parentClass": "",
                    "skipTypeConfiguration": false,
                    "sorting": false,
                    "type": "Entity",
                    "uid": "1131322766216"
                },
                "propertyGroup": {
                    "properties": [
                        {
                            "allowedFileTypes": "",
                            "maxItems": "1",
                            "propertyDescription": "",
                            "propertyIsExcludeField": true,
                            "propertyIsL10nModeExclude": false,
                            "propertyIsRequired": false,
                            "propertyName": "city",
                            "propertyType": "String",
                            "uid": "1054034809374"
                        },
                        {
                            "allowedFileTypes": "",
                            "maxItems": "1",
                            "propertyDescription": "",
                            "propertyIsExcludeField": true,
                            "propertyIsL10nModeExclude": false,
                            "propertyIsRequired": false,
                            "propertyName": "country",
                            "propertyType": "String",
                            "uid": "194862869270"
                        },
                        {
                            "allowedFileTypes": "",
                            "maxItems": "1",
                            "propertyDescription": "",
                            "propertyIsExcludeField": true,
                            "propertyIsL10nModeExclude": false,
                            "propertyIsRequired": false,
                            "propertyName": "name",
                            "propertyType": "String",
                            "uid": "1169795524829"
                        },
                        {
                            "allowedFileTypes": "",
                            "maxItems": "1",
                            "propertyDescription": "",
                            "propertyIsExcludeField": true,
                            "propertyIsL10nModeExclude": false,
                            "propertyIsRequired": false,
                            "propertyName": "street",
                            "propertyType": "String",
                            "uid": "647201922471"
                        },
                        {
                            "allowedFileTypes": "",
                            "maxItems": "1",
                            "propertyDescription": "",
                            "propertyIsExcludeField": true,
                            "propertyIsL10nModeExclude": false,
                            "propertyIsRequired": false,
                            "propertyName": "zip",
                            "propertyType": "String",
                            "uid": "1330177411669"
                        }
                    ]
                },
                "relationGroup": {
                    "relations": []
                }
            }
        }
    ],
    "properties": {
        "backendModules": [],
        "description": "Guest registration form for the reception.",
        "emConf": {
            "category": "plugin",
            "custom_category": "",
            "dependsOn": "typo3 => 8.7.0-8.7.99\n",
            "disableLocalization": false,
            "disableVersioning": false,
            "skipGenerateDocumentationTemplate": false,
            "sourceLanguage": "en",
            "state": "alpha",
            "targetVersion": "8.7.0-8.7.99",
            "version": "1.0.0"
        },
        "extensionKey": "kurz_gaesteanmeldung",
        "name": "Guest registration form",
        "originalExtensionKey": "kurz_gaesteanmeldung",
        "originalVendorName": "KURZ",
        "persons": [
            {
                "company": "LEONHARD KURZ Stiftung & Co. KG",
                "email": "alexander.fuchs@kurz.de",
                "name": "Alexander Fuchs",
                "role": "Developer"
            }
        ],
        "plugins": [
            {
                "actions": {
                    "controllerActionCombinations": "VisitRequestData => create, showForm,  sendMail",
                    "noncacheableActions": "VisitRequestData => create, showForm, sendMail",
                    "switchableActions": ""
                },
                "description": "",
                "key": "gaesteanmeldung",
                "name": "G\u00e4steanmeldung"
            }
        ],
        "vendorName": "KURZ"
    },
    "wires": [
        {
            "src": {
                "moduleId": 0,
                "terminal": "relationWire_0",
                "uid": "1139244690651"
            },
            "tgt": {
                "moduleId": 1,
                "terminal": "SOURCES",
                "uid": "1280474297883"
            }
        },
        {
            "src": {
                "moduleId": 0,
                "terminal": "relationWire_1",
                "uid": "1419377383036"
            },
            "tgt": {
                "moduleId": 1,
                "terminal": "SOURCES",
                "uid": "1280474297883"
            }
        },
        {
            "src": {
                "moduleId": 0,
                "terminal": "relationWire_2",
                "uid": "1398736068231"
            },
            "tgt": {
                "moduleId": 1,
                "terminal": "SOURCES",
                "uid": "1280474297883"
            }
        },
        {
            "src": {
                "moduleId": 2,
                "terminal": "relationWire_1",
                "uid": "1369400244776"
            },
            "tgt": {
                "moduleId": 4,
                "terminal": "SOURCES",
                "uid": "1131322766216"
            }
        },
        {
            "src": {
                "moduleId": 2,
                "terminal": "relationWire_0",
                "uid": "291752437349"
            },
            "tgt": {
                "moduleId": 4,
                "terminal": "SOURCES",
                "uid": "1131322766216"
            }
        },
        {
            "src": {
                "moduleId": 0,
                "terminal": "relationWire_3",
                "uid": "173635714634"
            },
            "tgt": {
                "moduleId": 2,
                "terminal": "SOURCES",
                "uid": "592562897533"
            }
        },
        {
            "src": {
                "moduleId": 1,
                "terminal": "relationWire_0",
                "uid": "58932082943"
            },
            "tgt": {
                "moduleId": 3,
                "terminal": "SOURCES",
                "uid": "1343005938227"
            }
        }
    ],
    "log": {
        "last_modified": "2019-06-06 10:14",
        "extension_builder_version": "8.10.4",
        "be_user": "Fuchs Alexander (1)"
    }
}